proj-final/simulation/qsim/proj-final.msim.vcd
$comment
	File created using the following command:
		vcd file proj-final.msim.vcd -direction
$end
$date
	Fri Mar 31 19:06:33 2023
$end
$version
	ModelSim Version 10.1d
$end
$timescale
	1ps
$end
$scope module reg_decod_vlg_vec_tst $end
$var reg 1 ! btn_dir $end
$var reg 1 " Btn_esq $end
$var reg 1 # btn_mid $end
$var reg 1 $ CLK $end
$var reg 1 % D0 $end
$var reg 1 & D1 $end
$var reg 1 ' D2 $end
$var reg 1 ( D3 $end
$var reg 1 ) SWITCH $end
$var wire 1 * S [3] $end
$var wire 1 + S [2] $end
$var wire 1 , S [1] $end
$var wire 1 - S [0] $end
$var wire 1 . sampler $end
$scope module i1 $end
$var wire 1 / gnd $end
$var wire 1 0 vcc $end
$var wire 1 1 unknown $end
$var tri1 1 2 devclrn $end
$var tri1 1 3 devpor $end
$var tri1 1 4 devoe $end
$var wire 1 5 S[3]~output_o $end
$var wire 1 6 S[2]~output_o $end
$var wire 1 7 S[1]~output_o $end
$var wire 1 8 S[0]~output_o $end
$var wire 1 9 CLK~input_o $end
$var wire 1 : CLK~inputclkctrl_outclk $end
$var wire 1 ; D0~input_o $end
$var wire 1 < Btn_esq~input_o $end
$var wire 1 = btn_mid~input_o $end
$var wire 1 > btn_dir~input_o $end
$var wire 1 ? SWITCH~input_o $end
$var wire 1 @ inst|inst9~0_combout $end
$var wire 1 A inst2|inst~q $end
$var wire 1 B D1~input_o $end
$var wire 1 C inst2|inst2~q $end
$var wire 1 D D2~input_o $end
$var wire 1 E inst2|inst3~q $end
$var wire 1 F D3~input_o $end
$var wire 1 G inst2|inst4~q $end
$upscope $end
$upscope $end
$enddefinitions $end
#0
$dumpvars
0!
0"
0#
0$
1%
0&
1'
0(
0)
0-
0,
0+
0*
x.
0/
10
x1
12
13
14
05
06
07
08
09
0:
1;
0<
0=
0>
0?
0@
0A
0B
0C
1D
0E
0F
0G
$end
#10000
1$
19
1:
0.
#20000
0$
09
0:
1.
#30000
1$
19
1:
0.
#40000
0$
09
0:
1.
#50000
1$
19
1:
0.
#60000
0$
09
0:
1.
#70000
1$
19
1:
0.
#80000
0$
09
0:
1.
#90000
1$
19
1:
0.
#100000
0$
09
0:
1.
#110000
1$
19
1:
0.
#120000
0$
09
0:
1.
#130000
1$
19
1:
0.
#140000
0$
09
0:
1.
#150000
1$
19
1:
0.
#160000
0$
09
0:
1.
#170000
1$
19
1:
0.
#180000
0$
09
0:
1.
#190000
1$
19
1:
0.
#200000
0$
09
0:
1.
#210000
1$
19
1:
0.
#220000
0$
09
0:
1.
#230000
1$
19
1:
0.
#240000
0$
09
0:
1.
#250000
1$
19
1:
0.
#260000
0$
09
0:
1.
#270000
1$
19
1:
0.
#280000
0$
09
0:
1.
#290000
1$
19
1:
0.
#300000
0$
09
0:
1.
#310000
1$
19
1:
0.
#320000
0$
09
0:
1.
#330000
1$
19
1:
0.
#340000
0$
09
0:
1.
#350000
1$
19
1:
0.
#360000
0$
09
0:
1.
#370000
1$
19
1:
0.
#380000
1)
0$
1?
09
0:
1.
1@
#390000
1$
19
1:
0.
1E
1A
17
15
1,
1*
#400000
0$
09
0:
1.
#410000
1$
19
1:
0.
#420000
0$
09
0:
1.
#430000
1$
19
1:
0.
#440000
0$
09
0:
1.
#450000
1$
19
1:
0.
#460000
0$
09
0:
1.
#470000
1$
19
1:
0.
#480000
0$
09
0:
1.
#490000
1$
19
1:
0.
#500000
0$
09
0:
1.
#510000
1$
19
1:
0.
#520000
0$
09
0:
1.
#530000
1$
19
1:
0.
#540000
0$
09
0:
1.
#550000
1$
19
1:
0.
#560000
0$
09
0:
1.
#570000
1$
19
1:
0.
#580000
0$
09
0:
1.
#590000
1$
19
1:
0.
#600000
0$
09
0:
1.
#610000
1$
19
1:
0.
#620000
0$
09
0:
1.
#630000
1$
19
1:
0.
#640000
0$
09
0:
1.
#650000
1$
19
1:
0.
#660000
0$
09
0:
1.
#670000
1$
19
1:
0.
#680000
0$
09
0:
1.
#690000
1$
19
1:
0.
#700000
0$
09
0:
1.
#710000
1$
19
1:
0.
#720000
0$
09
0:
1.
#730000
1$
19
1:
0.
#740000
0$
09
0:
1.
#750000
1$
19
1:
0.
#760000
0$
09
0:
1.
#770000
1$
19
1:
0.
#780000
0$
09
0:
1.
#790000
1$
19
1:
0.
#800000
0$
09
0:
1.
#810000
1$
19
1:
0.
#820000
0$
09
0:
1.
#830000
1$
19
1:
0.
#840000
0$
09
0:
1.
#850000
1$
19
1:
0.
#860000
0$
09
0:
1.
#870000
1$
19
1:
0.
#880000
0$
09
0:
1.
#890000
1$
19
1:
0.
#900000
0$
09
0:
1.
#910000
1$
19
1:
0.
#920000
0$
09
0:
1.
#930000
1$
19
1:
0.
#940000
0$
09
0:
1.
#950000
1$
19
1:
0.
#960000
0$
09
0:
1.
#970000
1$
19
1:
0.
#980000
0$
09
0:
1.
#990000
1$
19
1:
0.
