proj-final/simulation/qsim/proj-final.msim.vcd
$comment
	File created using the following command:
		vcd file proj-final.msim.vcd -direction
$end
$date
	Fri Mar 31 19:42:14 2023
$end
$version
	ModelSim Version 10.1d
$end
$timescale
	1ps
$end
$scope module cont2bits_vlg_vec_tst $end
$var reg 1 ! button $end
$var reg 1 " CLK $end
$var wire 1 # S [1] $end
$var wire 1 $ S [0] $end
$var wire 1 % sampler $end
$scope module i1 $end
$var wire 1 & gnd $end
$var wire 1 ' vcc $end
$var wire 1 ( unknown $end
$var tri1 1 ) devclrn $end
$var tri1 1 * devpor $end
$var tri1 1 + devoe $end
$var wire 1 , S[0]~output_o $end
$var wire 1 - S[1]~output_o $end
$var wire 1 . CLK~input_o $end
$var wire 1 / CLK~inputclkctrl_outclk $end
$var wire 1 0 button~input_o $end
$var wire 1 1 pressed~feeder_combout $end
$var wire 1 2 pressed~q $end
$var wire 1 3 count[0]~0_combout $end
$var wire 1 4 count[1]~1_combout $end
$var wire 1 5 count [1] $end
$var wire 1 6 count [0] $end
$upscope $end
$upscope $end
$enddefinitions $end
#0
$dumpvars
0!
0"
0$
0#
x%
0&
1'
x(
1)
1*
1+
0,
0-
0.
0/
00
01
02
03
04
06
05
$end
#10000
1"
1.
1/
0%
#20000
1!
0"
10
0.
0/
1%
13
11
#30000
1"
1.
1/
0%
12
16
1,
1$
#40000
0"
0.
0/
1%
#50000
1"
1.
1/
0%
#60000
0"
0.
0/
1%
#70000
1"
1.
1/
0%
#80000
0!
0"
00
0.
0/
1%
01
#90000
1"
1.
1/
0%
02
#100000
0"
0.
0/
1%
#110000
1"
1.
1/
0%
#120000
0"
0.
0/
1%
#130000
1"
1.
1/
0%
#140000
0"
0.
0/
1%
#150000
1"
1.
1/
0%
#160000
0"
0.
0/
1%
#170000
1"
1.
1/
0%
#180000
0"
0.
0/
1%
#190000
1"
1.
1/
0%
#200000
1!
0"
10
0.
0/
1%
14
03
11
#210000
1"
1.
1/
0%
12
15
06
1-
0,
1#
0$
#220000
0"
0.
0/
1%
#230000
1"
1.
1/
0%
#240000
0"
0.
0/
1%
#250000
1"
1.
1/
0%
#260000
0"
0.
0/
1%
#270000
1"
1.
1/
0%
#280000
0!
0"
00
0.
0/
1%
01
#290000
1"
1.
1/
0%
02
#300000
0"
0.
0/
1%
#310000
1"
1.
1/
0%
#320000
0"
0.
0/
1%
#330000
1"
1.
1/
0%
#340000
0"
0.
0/
1%
#350000
1"
1.
1/
0%
#360000
0"
0.
0/
1%
#370000
1"
1.
1/
0%
#380000
0"
0.
0/
1%
#390000
1"
1.
1/
0%
#400000
1!
0"
10
0.
0/
1%
13
11
#410000
1"
1.
1/
0%
12
16
1,
1$
#420000
0"
0.
0/
1%
#430000
1"
1.
1/
0%
#440000
0"
0.
0/
1%
#450000
0!
1"
00
1.
1/
0%
01
#460000
0"
0.
0/
1%
#470000
1"
1.
1/
0%
02
#480000
0"
0.
0/
1%
#490000
1"
1.
1/
0%
#500000
0"
0.
0/
1%
#510000
1"
1.
1/
0%
#520000
0"
0.
0/
1%
#530000
1"
1.
1/
0%
#540000
0"
0.
0/
1%
#550000
1"
1.
1/
0%
#560000
1!
0"
10
0.
0/
1%
04
03
11
#570000
1"
1.
1/
0%
12
05
06
0-
0,
0#
0$
#580000
0"
0.
0/
1%
#590000
1"
1.
1/
0%
#600000
0!
0"
00
0.
0/
1%
01
#610000
1"
1.
1/
0%
02
#620000
0"
0.
0/
1%
#630000
1"
1.
1/
0%
#640000
0"
0.
0/
1%
#650000
1"
1.
1/
0%
#660000
0"
0.
0/
1%
#670000
1"
1.
1/
0%
#680000
0"
0.
0/
1%
#690000
1"
1.
1/
0%
#700000
0"
0.
0/
1%
#710000
1"
1.
1/
0%
#720000
1!
0"
10
0.
0/
1%
13
11
#730000
1"
1.
1/
0%
12
16
1,
1$
#740000
0"
0.
0/
1%
#750000
0!
1"
00
1.
1/
0%
01
#760000
0"
0.
0/
1%
#770000
1"
1.
1/
0%
02
#780000
0"
0.
0/
1%
#790000
1"
1.
1/
0%
#800000
0"
0.
0/
1%
#810000
1"
1.
1/
0%
#820000
0"
0.
0/
1%
#830000
1"
1.
1/
0%
#840000
0"
0.
0/
1%
#850000
1"
1.
1/
0%
#860000
1!
0"
10
0.
0/
1%
14
03
11
#870000
1"
1.
1/
0%
12
15
06
1-
0,
1#
0$
#880000
0!
0"
00
0.
0/
1%
01
#890000
1"
1.
1/
0%
02
#900000
0"
0.
0/
1%
#910000
1"
1.
1/
0%
#920000
0"
0.
0/
1%
#930000
1"
1.
1/
0%
#940000
0"
0.
0/
1%
#950000
1"
1.
1/
0%
#960000
0"
0.
0/
1%
#970000
1"
1.
1/
0%
#980000
0"
0.
0/
1%
#990000
1"
1.
1/
0%
