proj-final/simulation/qsim/proj-final.msim.vcd
$comment
	File created using the following command:
		vcd file proj-final.msim.vcd -direction
$end
$date
	Sat Apr 01 12:18:32 2023
$end
$version
	ModelSim Version 10.1d
$end
$timescale
	1ps
$end
$scope module reg_decod_regUser_vlg_vec_tst $end
$var reg 1 ! btn_inc $end
$var reg 1 " btn_seleciona $end
$var reg 1 # btn_troca $end
$var reg 1 $ change_pass $end
$var reg 1 % CLK $end
$var wire 1 & Q0 $end
$var wire 1 ' Q1 $end
$var wire 1 ( Q2 $end
$var wire 1 ) Q3 $end
$var wire 1 * S [3] $end
$var wire 1 + S [2] $end
$var wire 1 , S [1] $end
$var wire 1 - S [0] $end
$var wire 1 . sampler $end
$scope module i1 $end
$var wire 1 / gnd $end
$var wire 1 0 vcc $end
$var wire 1 1 unknown $end
$var tri1 1 2 devclrn $end
$var tri1 1 3 devpor $end
$var tri1 1 4 devoe $end
$var wire 1 5 Q0~output_o $end
$var wire 1 6 Q1~output_o $end
$var wire 1 7 Q2~output_o $end
$var wire 1 8 Q3~output_o $end
$var wire 1 9 S[3]~output_o $end
$var wire 1 : S[2]~output_o $end
$var wire 1 ; S[1]~output_o $end
$var wire 1 < S[0]~output_o $end
$var wire 1 = CLK~input_o $end
$var wire 1 > CLK~inputclkctrl_outclk $end
$var wire 1 ? btn_troca~input_o $end
$var wire 1 @ inst2|inst|pressed~q $end
$var wire 1 A inst2|inst|count[0]~1_combout $end
$var wire 1 B inst2|inst|count[1]~0_combout $end
$var wire 1 C btn_inc~input_o $end
$var wire 1 D inst2|inst1|pressed~0_combout $end
$var wire 1 E inst2|inst1|pressed~feeder_combout $end
$var wire 1 F inst2|inst1|pressed~q $end
$var wire 1 G inst2|inst1|count[0]~0_combout $end
$var wire 1 H inst2|inst4|process_0~0_combout $end
$var wire 1 I inst2|inst4|pressed~feeder_combout $end
$var wire 1 J inst2|inst4|pressed~q $end
$var wire 1 K inst2|inst4|count[0]~0_combout $end
$var wire 1 L inst2|inst5|process_0~0_combout $end
$var wire 1 M inst2|inst5|pressed~feeder_combout $end
$var wire 1 N inst2|inst5|pressed~q $end
$var wire 1 O inst2|inst5|count[0]~0_combout $end
$var wire 1 P inst2|inst6|process_0~0_combout $end
$var wire 1 Q inst2|inst6|pressed~feeder_combout $end
$var wire 1 R inst2|inst6|pressed~q $end
$var wire 1 S inst2|inst6|count[0]~0_combout $end
$var wire 1 T btn_seleciona~input_o $end
$var wire 1 U change_pass~input_o $end
$var wire 1 V inst~combout $end
$var wire 1 W inst1|inst~q $end
$var wire 1 X inst1|inst2~q $end
$var wire 1 Y inst1|inst3~q $end
$var wire 1 Z inst1|inst4~q $end
$var wire 1 [ inst2|inst|count [1] $end
$var wire 1 \ inst2|inst|count [0] $end
$var wire 1 ] inst2|inst1|count [1] $end
$var wire 1 ^ inst2|inst1|count [0] $end
$var wire 1 _ inst2|inst5|count [1] $end
$var wire 1 ` inst2|inst5|count [0] $end
$var wire 1 a inst2|inst6|count [1] $end
$var wire 1 b inst2|inst6|count [0] $end
$var wire 1 c inst2|inst4|count [1] $end
$var wire 1 d inst2|inst4|count [0] $end
$upscope $end
$upscope $end
$enddefinitions $end
#0
$dumpvars
0!
0"
0#
0$
0%
0&
0'
0(
0)
0-
0,
0+
0*
x.
0/
10
x1
12
13
14
05
06
07
08
09
0:
0;
0<
0=
0>
0?
0@
0A
0B
0C
0D
0E
0F
0G
0H
0I
0J
0K
0L
0M
0N
0O
0P
0Q
0R
0S
0T
0U
0V
0W
0X
0Y
0Z
0\
0[
0^
z]
0`
z_
0b
za
0d
zc
$end
#10000
1%
1=
1>
0.
#20000
1!
0%
1C
0=
0>
1.
1D
1G
1E
#30000
1%
1=
1>
0.
1F
1^
15
1&
#40000
0%
0=
0>
1.
#50000
0!
1%
0C
1=
1>
0.
0D
0E
#60000
0%
0=
0>
1.
#70000
1%
1=
1>
0.
0F
#80000
0%
0=
0>
1.
#90000
1%
1=
1>
0.
#100000
0%
0=
0>
1.
#110000
1%
1=
1>
0.
#120000
0%
0=
0>
1.
#130000
1%
1=
1>
0.
#140000
1#
0%
1?
0=
0>
1.
1A
#150000
1%
1=
1>
0.
1\
1@
#160000
0%
0=
0>
1.
#170000
1%
1=
1>
0.
#180000
0%
0=
0>
1.
#190000
0#
1%
0?
1=
1>
0.
0@
#200000
0%
0=
0>
1.
#210000
1!
1%
1C
1=
1>
0.
1H
1K
1I
#220000
0%
0=
0>
1.
#230000
1%
1=
1>
0.
1J
1d
16
1'
#240000
0!
0%
0C
0=
0>
1.
0H
0I
#250000
1%
1=
1>
0.
0J
#260000
1#
0%
1?
0=
0>
1.
1B
0A
#270000
1%
1=
1>
0.
1[
0\
1@
#280000
0%
0=
0>
1.
#290000
1%
1=
1>
0.
#300000
0%
0=
0>
1.
#310000
0#
1%
0?
1=
1>
0.
0@
#320000
0%
0=
0>
1.
#330000
1%
1=
1>
0.
#340000
0%
0=
0>
1.
#350000
1%
1=
1>
0.
#360000
0%
0=
0>
1.
#370000
1%
1=
1>
0.
#380000
0%
0=
0>
1.
#390000
1%
1=
1>
0.
#400000
1#
0%
1?
0=
0>
1.
1A
#410000
1%
1=
1>
0.
1\
1@
#420000
0%
0=
0>
1.
#430000
1%
1=
1>
0.
#440000
0#
0%
0?
0=
0>
1.
#450000
1%
1=
1>
0.
0@
#460000
0%
0=
0>
1.
#470000
1%
1=
1>
0.
#480000
0%
0=
0>
1.
#490000
1%
1=
1>
0.
#500000
0%
0=
0>
1.
#510000
1%
1=
1>
0.
#520000
0%
0=
0>
1.
#530000
1%
1=
1>
0.
#540000
1!
0%
1C
0=
0>
1.
1P
1S
1Q
#550000
1%
1=
1>
0.
1R
1b
18
1)
#560000
0%
0=
0>
1.
#570000
1%
1=
1>
0.
#580000
0!
0%
0C
0=
0>
1.
0P
0Q
#590000
1%
1=
1>
0.
0R
#600000
0%
0=
0>
1.
#610000
1%
1=
1>
0.
#620000
1"
1$
0%
1T
1U
0=
0>
1.
1V
#630000
1%
1=
1>
0.
1Z
1Y
1W
1<
1;
19
1-
1,
1*
#640000
0%
0=
0>
1.
#650000
1%
1=
1>
0.
#660000
0%
0=
0>
1.
#670000
0"
0$
1%
0T
0U
1=
1>
0.
0V
#680000
0%
0=
0>
1.
#690000
1%
1=
1>
0.
#700000
0%
0=
0>
1.
#710000
1%
1=
1>
0.
#720000
0%
0=
0>
1.
#730000
1%
1=
1>
0.
#740000
0%
0=
0>
1.
#750000
1%
1=
1>
0.
#760000
0%
0=
0>
1.
#770000
1%
1=
1>
0.
#780000
0%
0=
0>
1.
#790000
1%
1=
1>
0.
#800000
0%
0=
0>
1.
#810000
1%
1=
1>
0.
#820000
0%
0=
0>
1.
#830000
1%
1=
1>
0.
#840000
0%
0=
0>
1.
#850000
1%
1=
1>
0.
#860000
0%
0=
0>
1.
#870000
1%
1=
1>
0.
#880000
0%
0=
0>
1.
#890000
1%
1=
1>
0.
#900000
0%
0=
0>
1.
#910000
1%
1=
1>
0.
#920000
0%
0=
0>
1.
#930000
1%
1=
1>
0.
#940000
0%
0=
0>
1.
#950000
1%
1=
1>
0.
#960000
0%
0=
0>
1.
#970000
1%
1=
1>
0.
#980000
0%
0=
0>
1.
#990000
1%
1=
1>
0.
