proj-final/simulation/qsim/proj-final.msim.vcd
$comment
	File created using the following command:
		vcd file proj-final.msim.vcd -direction
$end
$date
	Fri Mar 31 22:12:22 2023
$end
$version
	ModelSim Version 10.1d
$end
$timescale
	1ps
$end
$scope module regUser4bits_vlg_vec_tst $end
$var reg 1 ! botaoInc $end
$var reg 1 " btn_troca $end
$var reg 1 # CLK $end
$var wire 1 $ Q0 $end
$var wire 1 % Q1 $end
$var wire 1 & Q2 $end
$var wire 1 ' Q3 $end
$var wire 1 ( sampler $end
$scope module i1 $end
$var wire 1 ) gnd $end
$var wire 1 * vcc $end
$var wire 1 + unknown $end
$var tri1 1 , devclrn $end
$var tri1 1 - devpor $end
$var tri1 1 . devoe $end
$var wire 1 / Q0~output_o $end
$var wire 1 0 Q1~output_o $end
$var wire 1 1 Q2~output_o $end
$var wire 1 2 Q3~output_o $end
$var wire 1 3 CLK~input_o $end
$var wire 1 4 CLK~inputclkctrl_outclk $end
$var wire 1 5 botaoInc~input_o $end
$var wire 1 6 btn_troca~input_o $end
$var wire 1 7 inst|pressed~feeder_combout $end
$var wire 1 8 inst|pressed~q $end
$var wire 1 9 inst|count[0]~1_combout $end
$var wire 1 : inst|count[1]~0_combout $end
$var wire 1 ; inst1|pressed~0_combout $end
$var wire 1 < inst1|pressed~feeder_combout $end
$var wire 1 = inst1|pressed~q $end
$var wire 1 > inst1|count[0]~0_combout $end
$var wire 1 ? inst4|process_0~0_combout $end
$var wire 1 @ inst4|pressed~feeder_combout $end
$var wire 1 A inst4|pressed~q $end
$var wire 1 B inst4|count[0]~0_combout $end
$var wire 1 C inst5|process_0~0_combout $end
$var wire 1 D inst5|pressed~feeder_combout $end
$var wire 1 E inst5|pressed~q $end
$var wire 1 F inst5|count[0]~0_combout $end
$var wire 1 G inst6|process_0~0_combout $end
$var wire 1 H inst6|pressed~feeder_combout $end
$var wire 1 I inst6|pressed~q $end
$var wire 1 J inst6|count[0]~0_combout $end
$var wire 1 K inst5|count [1] $end
$var wire 1 L inst5|count [0] $end
$var wire 1 M inst6|count [1] $end
$var wire 1 N inst6|count [0] $end
$var wire 1 O inst|count [1] $end
$var wire 1 P inst|count [0] $end
$var wire 1 Q inst1|count [1] $end
$var wire 1 R inst1|count [0] $end
$var wire 1 S inst4|count [1] $end
$var wire 1 T inst4|count [0] $end
$upscope $end
$upscope $end
$enddefinitions $end
#0
$dumpvars
0!
0"
0#
0$
0%
0&
0'
x(
0)
1*
x+
1,
1-
1.
0/
00
01
02
03
04
05
06
07
08
09
0:
0;
0<
0=
0>
0?
0@
0A
0B
0C
0D
0E
0F
0G
0H
0I
0J
0L
zK
0N
zM
0P
0O
0R
zQ
0T
zS
$end
#10000
1#
1!
13
15
14
0(
1;
1>
1<
#20000
0#
03
04
1(
#30000
1#
13
14
0(
1=
1R
1/
1$
#40000
0#
03
04
1(
#50000
1#
13
14
0(
#60000
0!
0#
05
03
04
1(
0;
0<
#70000
1#
13
14
0(
0=
#80000
1!
0#
15
03
04
1(
1;
0>
1<
#90000
1#
13
14
0(
1=
0R
0/
0$
#100000
0#
03
04
1(
#110000
1#
13
14
0(
#120000
0!
0#
05
03
04
1(
0;
0<
#130000
1#
13
14
0(
0=
#140000
0#
03
04
1(
#150000
1#
13
14
0(
#160000
1!
0#
15
03
04
1(
1;
1>
1<
#170000
1#
13
14
0(
1=
1R
1/
1$
#180000
0!
0#
05
03
04
1(
0;
0<
#190000
1#
13
14
0(
0=
#200000
1"
0#
16
03
04
1(
19
17
#210000
1#
13
14
0(
1P
18
#220000
0#
03
04
1(
#230000
1#
13
14
0(
#240000
0"
0#
06
03
04
1(
07
#250000
1#
13
14
0(
08
#260000
0#
03
04
1(
#270000
1#
13
14
0(
#280000
1!
0#
15
03
04
1(
1?
1B
1@
#290000
1#
13
14
0(
1A
1T
10
1%
#300000
0#
03
04
1(
#310000
1#
13
14
0(
#320000
0!
0#
05
03
04
1(
0?
0@
#330000
1#
13
14
0(
0A
#340000
0#
03
04
1(
#350000
1#
13
14
0(
#360000
1!
0#
15
03
04
1(
1?
0B
1@
#370000
1#
13
14
0(
1A
0T
00
0%
#380000
0#
03
04
1(
#390000
1#
13
14
0(
#400000
0!
0#
05
03
04
1(
0?
0@
#410000
1#
13
14
0(
0A
#420000
0#
03
04
1(
#430000
1"
1#
16
13
14
0(
1:
09
17
#440000
0#
03
04
1(
#450000
1#
13
14
0(
1O
0P
18
#460000
0#
03
04
1(
#470000
0"
1#
06
13
14
0(
07
#480000
1!
0#
15
03
04
1(
1C
1F
1D
#490000
1#
13
14
0(
1E
08
1L
11
1&
#500000
0#
03
04
1(
#510000
0!
1#
05
13
14
0(
0C
0D
#520000
0#
03
04
1(
#530000
1#
13
14
0(
0E
#540000
1!
0#
15
03
04
1(
1C
0F
1D
#550000
1#
13
14
0(
1E
0L
01
0&
#560000
0#
03
04
1(
#570000
0!
1#
05
13
14
0(
0C
0D
#580000
0#
03
04
1(
#590000
1!
1#
15
13
14
0(
1C
1D
0E
1F
#600000
0#
03
04
1(
#610000
1#
13
14
0(
1E
1L
11
1&
#620000
0!
0#
05
03
04
1(
0C
0D
#630000
1"
1#
16
13
14
0(
19
17
0E
#640000
0#
03
04
1(
#650000
1#
13
14
0(
1P
18
#660000
0"
0#
06
03
04
1(
07
#670000
1#
13
14
0(
08
#680000
0#
03
04
1(
#690000
1#
13
14
0(
#700000
0#
03
04
1(
#710000
1#
13
14
0(
#720000
0#
03
04
1(
#730000
1#
13
14
0(
#740000
0#
03
04
1(
#750000
1#
13
14
0(
#760000
0#
03
04
1(
#770000
1#
13
14
0(
#780000
0#
03
04
1(
#790000
1"
1#
16
13
14
0(
0:
09
17
#800000
0#
03
04
1(
#810000
1#
13
14
0(
0O
0P
18
#820000
0#
03
04
1(
#830000
0"
1#
06
13
14
0(
07
#840000
0#
03
04
1(
#850000
1#
13
14
0(
08
#860000
0#
03
04
1(
#870000
1!
1#
15
13
14
0(
1;
0>
1<
#880000
0#
03
04
1(
#890000
1#
13
14
0(
1=
0R
0/
0$
#900000
0#
03
04
1(
#910000
1#
13
14
0(
#920000
0#
03
04
1(
#930000
1#
13
14
0(
#940000
0#
03
04
1(
#950000
0!
1#
05
13
14
0(
0;
0<
#960000
0#
03
04
1(
#970000
1#
13
14
0(
0=
#980000
0#
03
04
1(
#990000
1#
13
14
0(
